{
  "intents": [
    {
      "intent": "MusicManArtistIntent",
      "slots": [
        {
          "name": "artist",
          "type": "AMAZON.LITERAL"
        }
      ]
    },
    {
      "intent": "MusicManVenueIntent",
      "slots": [
        {
          "name": "venue",
          "type": "AMAZON.LITERAL"
        }
      ]
    },
    {
      "intent": "GetNextEventIntent"
    },
    {
      "intent": "AMAZON.HelpIntent"
    },
    {
      "intent": "HelpEvents"
    },
    {
      "intent": "StopEvents"
    },
    {
      "intent": "IncompleteIntents"
    },
    {
      "intent": "AMAZON.StopIntent"
    },
    {
      "intent": "AMAZON.CancelIntent"
    }
  ]
}